{
    "features": [
        {
            "geometry": {
                "coordinates": [
                    3.0091,
                    48.82621666666667
                ],
                "type": "Point"
            },
            "properties": {
                "infos": {
                    "airport_frequency": "",
                    "code": "CLMEQ",
                    "country": "FR",
                    "description": "Centre equestre Sud LFPK",
                    "elevation": "140m",
                    "latitude": 48.82621666666667,
                    "longitude": 3.0091,
                    "name": "CLM-Equestre",
                    "runway_direction": "",
                    "runway_length": "",
                    "style": "1"
                },
                "name": "CLM-Equestre",
                "options": {
                    "A1": "180",
                    "Line": "1",
                    "ObsZone": "0",
                    "R1": "1000m",
                    "Style": "2"
                }
            },
            "type": "Feature"
        },
        {
            "geometry": {
                "coordinates": [
                    [
                        3.0091,
                        48.82621666666667
                    ],
                    [
                        2.9341833333333334,
                        48.8449
                    ]
                ],
                "type": "LineString"
            },
            "properties": {
                "name": "5,88 km (111\u00b0)"
            },
            "type": "Feature"
        },
        {
            "geometry": {
                "coordinates": [
                    2.9341833333333334,
                    48.8449
                ],
                "type": "Point"
            },
            "properties": {
                "infos": {
                    "airport_frequency": "",
                    "code": "GOLFCRY",
                    "country": "FR",
                    "description": "Golf de Cr\u00e9cy",
                    "elevation": "140m",
                    "latitude": 48.8449,
                    "longitude": 2.9341833333333334,
                    "name": "Golf de Crecy",
                    "runway_direction": "",
                    "runway_length": "",
                    "style": "1"
                },
                "name": "Golf de Crecy",
                "options": {
                    "A1": "45",
                    "ObsZone": "1",
                    "R1": "3000m",
                    "Style": "1"
                }
            },
            "type": "Feature"
        },
        {
            "geometry": {
                "coordinates": [
                    [
                        2.9341833333333334,
                        48.8449
                    ],
                    [
                        3.23575,
                        48.92243333333333
                    ]
                ],
                "type": "LineString"
            },
            "properties": {
                "name": "23,74 km (249\u00b0)"
            },
            "type": "Feature"
        },
        {
            "geometry": {
                "coordinates": [
                    3.23575,
                    48.92243333333333
                ],
                "type": "Point"
            },
            "properties": {
                "infos": {
                    "airport_frequency": "",
                    "code": "BUSSIERE",
                    "country": "FR",
                    "description": "Bussiere Centre Ville",
                    "elevation": "174m",
                    "latitude": 48.92243333333333,
                    "longitude": 3.23575,
                    "name": "Bussieres",
                    "runway_direction": "",
                    "runway_length": "",
                    "style": "1"
                },
                "name": "Bussieres",
                "options": {
                    "A1": "45",
                    "ObsZone": "2",
                    "R1": "3000m",
                    "Style": "1"
                }
            },
            "type": "Feature"
        },
        {
            "geometry": {
                "coordinates": [
                    [
                        3.23575,
                        48.92243333333333
                    ],
                    [
                        3.23575,
                        48.92243333333333
                    ]
                ],
                "type": "LineString"
            },
            "properties": {
                "name": "0,0 km (180\u00b0)"
            },
            "type": "Feature"
        },
        {
            "geometry": {
                "coordinates": [
                    3.23575,
                    48.92243333333333
                ],
                "type": "Point"
            },
            "properties": {
                "infos": {
                    "airport_frequency": "",
                    "code": "BARNY",
                    "country": "FR",
                    "description": "Barny centre ville",
                    "elevation": "174m",
                    "latitude": 48.92243333333333,
                    "longitude": 3.23575,
                    "name": "Barny N",
                    "runway_direction": "",
                    "runway_length": "",
                    "style": "1"
                },
                "name": "Barny N",
                "options": {
                    "A1": "45",
                    "ObsZone": "3",
                    "R1": "3000m",
                    "Style": "1"
                }
            },
            "type": "Feature"
        },
        {
            "geometry": {
                "coordinates": [
                    [
                        3.23575,
                        48.92243333333333
                    ],
                    [
                        3.0091,
                        48.82621666666667
                    ]
                ],
                "type": "LineString"
            },
            "properties": {
                "name": "19,77 km (57\u00b0)"
            },
            "type": "Feature"
        },
        {
            "geometry": {
                "coordinates": [
                    3.0091,
                    48.82621666666667
                ],
                "type": "Point"
            },
            "properties": {
                "infos": {
                    "airport_frequency": "",
                    "code": "CLMEQ",
                    "country": "FR",
                    "description": "Centre equestre Sud LFPK",
                    "elevation": "140m",
                    "latitude": 48.82621666666667,
                    "longitude": 3.0091,
                    "name": "CLM-Equestre",
                    "runway_direction": "",
                    "runway_length": "",
                    "style": "1"
                },
                "name": "CLM-Equestre",
                "options": {
                    "A1": "180",
                    "Line": "1",
                    "ObsZone": "4",
                    "R1": "1000m",
                    "Style": "3"
                }
            },
            "type": "Feature"
        }
    ],
    "type": "FeatureCollection"
}