{
    "features": [
        {
            "geometry": {
                "coordinates": [
                    3.0046666666666666,
                    48.833616666666664
                ],
                "type": "Point"
            },
            "properties": {
                "infos": {
                    "airport_frequency": "",
                    "code": "",
                    "country": "FR",
                    "description": "",
                    "elevation": "143.6m",
                    "latitude": 48.833616666666664,
                    "longitude": 3.0046666666666666,
                    "name": "COULOM H",
                    "runway_direction": "",
                    "runway_length": "",
                    "style": "1"
                },
                "name": "COULOM H",
                "options": {
                    "A1": "180",
                    "Line": "1",
                    "ObsZone": "0",
                    "R1": "1000m",
                    "Style": "2"
                }
            },
            "type": "Feature"
        },
        {
            "geometry": {
                "coordinates": [
                    [
                        3.0046666666666666,
                        48.833616666666664
                    ],
                    [
                        2.3941666666666666,
                        47.48055
                    ]
                ],
                "type": "LineString"
            },
            "properties": {
                "name": "157,16 km (17\u00b0)"
            },
            "type": "Feature"
        },
        {
            "geometry": {
                "coordinates": [
                    2.3941666666666666,
                    47.48055
                ],
                "type": "Point"
            },
            "properties": {
                "infos": {
                    "airport_frequency": "",
                    "code": "",
                    "country": "FR",
                    "description": "",
                    "elevation": "192.3m",
                    "latitude": 47.48055,
                    "longitude": 2.3941666666666666,
                    "name": "AUBIGNY",
                    "runway_direction": "",
                    "runway_length": "",
                    "style": "1"
                },
                "name": "AUBIGNY",
                "options": {
                    "A1": "45",
                    "ObsZone": "1",
                    "R1": "3000m",
                    "Style": "1"
                }
            },
            "type": "Feature"
        },
        {
            "geometry": {
                "coordinates": [
                    [
                        2.3941666666666666,
                        47.48055
                    ],
                    [
                        4.085,
                        49.00528333333333
                    ]
                ],
                "type": "LineString"
            },
            "properties": {
                "name": "210,98 km (216\u00b0)"
            },
            "type": "Feature"
        },
        {
            "geometry": {
                "coordinates": [
                    4.085,
                    49.00528333333333
                ],
                "type": "Point"
            },
            "properties": {
                "infos": {
                    "airport_frequency": "",
                    "code": "",
                    "country": "FR",
                    "description": "",
                    "elevation": "88.4m",
                    "latitude": 49.00528333333333,
                    "longitude": 4.085,
                    "name": "EPERNAY",
                    "runway_direction": "",
                    "runway_length": "",
                    "style": "1"
                },
                "name": "EPERNAY",
                "options": {
                    "A1": "45",
                    "ObsZone": "2",
                    "R1": "3000m",
                    "Style": "1"
                }
            },
            "type": "Feature"
        },
        {
            "geometry": {
                "coordinates": [
                    [
                        4.085,
                        49.00528333333333
                    ],
                    [
                        3.0046666666666666,
                        48.833616666666664
                    ]
                ],
                "type": "LineString"
            },
            "properties": {
                "name": "81,45 km (77\u00b0)"
            },
            "type": "Feature"
        },
        {
            "geometry": {
                "coordinates": [
                    3.0046666666666666,
                    48.833616666666664
                ],
                "type": "Point"
            },
            "properties": {
                "infos": {
                    "airport_frequency": "",
                    "code": "",
                    "country": "FR",
                    "description": "",
                    "elevation": "143.6m",
                    "latitude": 48.833616666666664,
                    "longitude": 3.0046666666666666,
                    "name": "COULOM H",
                    "runway_direction": "",
                    "runway_length": "",
                    "style": "1"
                },
                "name": "COULOM H",
                "options": {
                    "A1": "180",
                    "Line": "1",
                    "ObsZone": "3",
                    "R1": "1000m",
                    "Style": "3"
                }
            },
            "type": "Feature"
        }
    ],
    "type": "FeatureCollection"
}