{
    "features": [
        {
            "geometry": {
                "coordinates": [
                    2.9341833333333334,
                    48.8449
                ],
                "type": "Point"
            },
            "properties": {
                "infos": {
                    "airport_frequency": "",
                    "code": "GOLFCRY",
                    "country": "FR",
                    "description": "Golf de Cr\u00e9cy",
                    "elevation": "140m",
                    "latitude": 48.8449,
                    "longitude": 2.9341833333333334,
                    "name": "Golf de Crecy",
                    "runway_direction": "",
                    "runway_length": "",
                    "style": "1"
                },
                "name": "Golf de Crecy",
                "options": {
                    "A1": "180",
                    "Line": "1",
                    "ObsZone": "0",
                    "R1": "1000m",
                    "Style": "2"
                }
            },
            "type": "Feature"
        },
        {
            "geometry": {
                "coordinates": [
                    [
                        2.9341833333333334,
                        48.8449
                    ],
                    [
                        3.27445,
                        48.85178333333333
                    ]
                ],
                "type": "LineString"
            },
            "properties": {
                "name": "24,99 km (268\u00b0)"
            },
            "type": "Feature"
        },
        {
            "geometry": {
                "coordinates": [
                    3.27445,
                    48.85178333333333
                ],
                "type": "Point"
            },
            "properties": {
                "infos": {
                    "airport_frequency": "",
                    "code": "GdMarche",
                    "country": "FR",
                    "description": "Grand Marche Centre Ville",
                    "elevation": "177m",
                    "latitude": 48.85178333333333,
                    "longitude": 3.27445,
                    "name": "GrandMarche",
                    "runway_direction": "",
                    "runway_length": "",
                    "style": "17"
                },
                "name": "GrandMarche",
                "options": {
                    "A1": "45",
                    "ObsZone": "1",
                    "R1": "3000m",
                    "Style": "1"
                }
            },
            "type": "Feature"
        },
        {
            "geometry": {
                "coordinates": [
                    [
                        3.27445,
                        48.85178333333333
                    ],
                    [
                        3.1043,
                        48.68525
                    ]
                ],
                "type": "LineString"
            },
            "properties": {
                "name": "22,35 km (34\u00b0)"
            },
            "type": "Feature"
        },
        {
            "geometry": {
                "coordinates": [
                    3.1043,
                    48.68525
                ],
                "type": "Point"
            },
            "properties": {
                "infos": {
                    "airport_frequency": "",
                    "code": "N4D402",
                    "country": "FR",
                    "description": "CarrefourN4D402",
                    "elevation": "110m",
                    "latitude": 48.68525,
                    "longitude": 3.1043,
                    "name": "CarrefourN4D402",
                    "runway_direction": "",
                    "runway_length": "",
                    "style": "17"
                },
                "name": "CarrefourN4D402",
                "options": {
                    "A1": "45",
                    "ObsZone": "2",
                    "R1": "3000m",
                    "Style": "1"
                }
            },
            "type": "Feature"
        },
        {
            "geometry": {
                "coordinates": [
                    [
                        3.1043,
                        48.68525
                    ],
                    [
                        3.2451,
                        48.702
                    ]
                ],
                "type": "LineString"
            },
            "properties": {
                "name": "10,53 km (260\u00b0)"
            },
            "type": "Feature"
        },
        {
            "geometry": {
                "coordinates": [
                    3.2451,
                    48.702
                ],
                "type": "Point"
            },
            "properties": {
                "infos": {
                    "airport_frequency": "",
                    "code": "BETON",
                    "country": "FR",
                    "description": "Eglise",
                    "elevation": "136m",
                    "latitude": 48.702,
                    "longitude": 3.2451,
                    "name": "Beton Bazoches",
                    "runway_direction": "",
                    "runway_length": "",
                    "style": "16"
                },
                "name": "Beton Bazoches",
                "options": {
                    "A1": "45",
                    "ObsZone": "3",
                    "R1": "3000m",
                    "Style": "1"
                }
            },
            "type": "Feature"
        },
        {
            "geometry": {
                "coordinates": [
                    [
                        3.2451,
                        48.702
                    ],
                    [
                        2.9341833333333334,
                        48.8449
                    ]
                ],
                "type": "LineString"
            },
            "properties": {
                "name": "27,84 km (125\u00b0)"
            },
            "type": "Feature"
        },
        {
            "geometry": {
                "coordinates": [
                    2.9341833333333334,
                    48.8449
                ],
                "type": "Point"
            },
            "properties": {
                "infos": {
                    "airport_frequency": "",
                    "code": "GOLFCRY",
                    "country": "FR",
                    "description": "Golf de Cr\u00e9cy",
                    "elevation": "140m",
                    "latitude": 48.8449,
                    "longitude": 2.9341833333333334,
                    "name": "Golf de Crecy",
                    "runway_direction": "",
                    "runway_length": "",
                    "style": "1"
                },
                "name": "Golf de Crecy",
                "options": {
                    "A1": "180",
                    "Line": "1",
                    "ObsZone": "4",
                    "R1": "1000m",
                    "Style": "3"
                }
            },
            "type": "Feature"
        }
    ],
    "type": "FeatureCollection"
}